{
	"title": "Ink-Stained Steel Sakura",
	"favIconSrc":"https://azurlane.koumakan.jp/w/images/8/85/NagatoChibi.png",
	"eventDuration": "11.04.2019 - 25.04.2019",
	"currencyImgSrc":"https://azurlane.koumakan.jp/w/images/f/f9/SakuraPt.png",
	"buyoutPrice": 42550,
	"headerImg":{
		"src":"https://azurlane.koumakan.jp/w/images/e/e7/Mutsu.png",
		"positionTop": -50,
		"positionLeft": -100
	},
	"storageKey":"inkStainedSteelSakuraApril2019",
	"jsonExportFileName":"Ink-stained Steel Sakura April 2019",
	"shop":[
		{"name": "Haruna",						"imgSrc":"https://azurlane.koumakan.jp/w/images/9/9b/HarunaIcon.png", 	"rarity":"E", 	"availableAmount":1, 	"price": 4000},
		{"name": "Kongou", 						"imgSrc":"https://azurlane.koumakan.jp/w/images/4/4c/KongouIcon.png", 	"rarity":"E", 	"availableAmount":1, 	"price": 4000},
		{"name": "Ooshio", 						"imgSrc":"https://azurlane.koumakan.jp/w/images/2/2d/OoshioIcon.png", 	"rarity":"R", 	"availableAmount":1, 	"price": 2000},
		{"name": "T4 Eagle Tech Pack", 			"imgSrc":"https://azurlane.koumakan.jp/w/images/7/7a/T4Box.png", 		"rarity":"SR", 	"availableAmount":4, 	"price": 300},
		{"name": "T4 Royal Tech Pack", 			"imgSrc":"https://azurlane.koumakan.jp/w/images/7/7a/T4Box.png", 		"rarity":"SR", 	"availableAmount":4, 	"price": 300},
		{"name": "T4 Sakura Tech Pack", 		"imgSrc":"https://azurlane.koumakan.jp/w/images/7/7a/T4Box.png", 		"rarity":"SR", 	"availableAmount":4, 	"price": 300},
		{"name": "T4 Ironblood Tech Pack", 		"imgSrc":"https://azurlane.koumakan.jp/w/images/7/7a/T4Box.png", 		"rarity":"SR", 	"availableAmount":4, 	"price": 300},
		{"name": "Cognitive Chips (x100)", 		"imgSrc":"https://azurlane.koumakan.jp/w/images/3/30/Moduleicon.png", 	"rarity":"SR", 	"availableAmount":10, 	"price": 300},
		{"name": "T3 Destroyer Retrofit BP", 	"imgSrc":"https://azurlane.koumakan.jp/w/images/6/65/DestroyerT3BP.png","rarity":"SR", 	"availableAmount":5, 	"price": 800},
		{"name": "T3 Cruiser Retrofit BP", 		"imgSrc":"https://azurlane.koumakan.jp/w/images/0/09/CruiserT3BP.png",	"rarity":"SR", 	"availableAmount":5, 	"price": 800},
		{"name": "T3 Battleship Retrofit BP", 	"imgSrc":"https://azurlane.koumakan.jp/w/images/1/1b/BattleshipT3BP.png","rarity":"SR", "availableAmount":5, 	"price": 800},
		{"name": "T3 Carrier Retrofit BP", 		"imgSrc":"https://azurlane.koumakan.jp/w/images/6/66/CarrierT3BP.png",	"rarity":"SR", 	"availableAmount":5, 	"price": 800},
		{"name": "Oil (x1000)", 				"imgSrc":"https://azurlane.koumakan.jp/w/images/f/f2/Oilicon.png", 		"rarity":"C", 	"availableAmount":10, 	"price": 500},
		{"name": "Coins (x2000)", 				"imgSrc":"https://azurlane.koumakan.jp/w/images/c/c4/Coinicon.png", 	"rarity":"C", 	"availableAmount":5, 	"price": 450},
		{"name": "Oxy Cola", 					"imgSrc":"https://azurlane.koumakan.jp/w/images/c/c9/Food1.png", 		"rarity":"R", 	"availableAmount":100, 	"price": 15}
	]
}


